[gd_scene load_steps=5 format=2]

[ext_resource path="res://src/Window.gd" type="Script" id=1]
[ext_resource path="res://img/button/close_pressed.png" type="Texture" id=2]
[ext_resource path="res://img/button/close.png" type="Texture" id=3]
[ext_resource path="res://img/popup/pop3.png" type="Texture" id=4]

[node name="Popup" type="Node2D"]
script = ExtResource( 1 )

[node name="Window" type="TextureRect" parent="."]
anchor_left = 0.5
anchor_top = 0.5
anchor_right = 0.5
anchor_bottom = 0.5
margin_left = -138.0
margin_top = -90.5
margin_right = 138.0
margin_bottom = 90.5
texture = ExtResource( 4 )
__meta__ = {
"_edit_use_anchors_": false
}

[node name="Close" type="TextureButton" parent="Window"]
margin_left = 8.0
margin_top = 8.0
margin_right = 24.0
margin_bottom = 24.0
texture_normal = ExtResource( 3 )
texture_pressed = ExtResource( 2 )
__meta__ = {
"_edit_use_anchors_": false
}
