[gd_scene load_steps=7 format=2]

[ext_resource path="res://img/users/gal_dark.png" type="Texture" id=1]
[ext_resource path="res://src/Gal.gd" type="Script" id=2]

[sub_resource type="RectangleShape2D" id=1]
extents = Vector2( 100, 75 )

[sub_resource type="CircleShape2D" id=2]
radius = 39.3389

[sub_resource type="Animation" id=3]
resource_name = "blink"
length = 0.5
tracks/0/type = "value"
tracks/0/path = NodePath("Sprite:frame")
tracks/0/interp = 1
tracks/0/loop_wrap = true
tracks/0/imported = false
tracks/0/enabled = true
tracks/0/keys = {
"times": PoolRealArray( 0, 0.2 ),
"transitions": PoolRealArray( 1, 1 ),
"update": 1,
"values": [ 1, 0 ]
}

[sub_resource type="Animation" id=4]
resource_name = "panic"
loop = true
tracks/0/type = "value"
tracks/0/path = NodePath("Sprite:frame")
tracks/0/interp = 1
tracks/0/loop_wrap = true
tracks/0/imported = false
tracks/0/enabled = true
tracks/0/keys = {
"times": PoolRealArray( 0, 0.5 ),
"transitions": PoolRealArray( 1, 1 ),
"update": 1,
"values": [ 3, 2 ]
}

[node name="User" type="StaticBody2D"]
script = ExtResource( 2 )

[node name="Sprite" type="Sprite" parent="."]
texture = ExtResource( 1 )
hframes = 4
frame = 1

[node name="Table" type="CollisionShape2D" parent="."]
position = Vector2( 0, 99 )
shape = SubResource( 1 )

[node name="Area" type="Area2D" parent="."]

[node name="Head" type="CollisionShape2D" parent="Area"]
position = Vector2( 4.66034, -15.0451 )
shape = SubResource( 2 )

[node name="AnimationPlayer" type="AnimationPlayer" parent="."]
anims/blink = SubResource( 3 )
anims/panic = SubResource( 4 )

[node name="Timer" type="Timer" parent="."]
wait_time = 0.5
one_shot = true
